You-Fang Wang,ywang@netsurfer.cn,56316361                      
Rob Fragoso,rfragoso@funnet.ca,(519) 123-8322                
John Mesi,jmesi@netnorth.ca,(519) 173-6876                
James C Scogin,jscogin@fishnet.nl.ca,(519) 164-6875                
Michael Panchal,mpanchal@webworks.com,(519) 152-6876                
John Boothman,jboothman@celestial.bc.ca,(519) 183-3478                
Mark W Vacek,mvacek@arachnet.ca,(519) 164-4542                
Jeffrey T Sette,jsette@spider.com,(519) 157-3386                
K. Ann Bornhorst,kbornhorst@maplenet.ca,(519) 163-4376                
Liz Behel,lbehel@spider.com,(519) 165-5566                
Veda Handorf,vhandorf@maplenet.ca,(519) 173-8723                
Joseph Nolan,jnolan@wired.biz,(519) 184-6857                
Gene Cosby,gcosby@netsurfer.ca,(902) 132-4844                
Sharon Kirk,skirk@netsurfer.ca,(519) 173-7738                
Mary D Crane,mcrane@wired.biz,(519) 168-6526                
Gladys Rodela,grodela@netnutz.biz,(519) 155-8382                
Larry G Hoggan,lhoggan@cannet.ca,(519) 122-7776                
Sebastian Wollam,swollam@nolimits.com,(519) 178-5376                
Sardar Singh,ssingh@netsurfer.in,64158822                      
Vera Roberds,vroberds@netnutz.biz,(519) 183-4288                
Michael Mousley,mmousley@webworks.com,(519) 163-4233                
Michael Prichard,mprichard@surfsup.com,(519) 156-4485                
Sandra R Glavin,sglavin@maplenet.ca,(519) 168-3628                
Rajkumar Raychaudhuri,rraychaudhuri@netsurfer.in,77472713                      
John Marbray,jmarbray@funnet.ca,(519) 188-7568                
Xiao-lan He,xhe@netsurfer.cn,61612771                      
Nicolette Vanegas,nvanegas@fishnet.nl.ca,(519) 127-7355                
Tracey R Fairleigh,tfairleigh@surfsup.com,(519) 178-8352                
Donald C. Paglio,dpaglio@netnorth.ca,(519) 174-4284                
Teresa M Pergola,tpergola@maplenet.ca,(519) 144-2526                
Suresh Govindarajan,sgovindarajan@netsurfer.in,63166668                      
Traci R Raethke,traethke@wired.biz,(519) 182-7237                
Melanie Merideth,mmerideth@wired.biz,(519) 126-5737                
Arceli Wildey,awildey@spider.com,(519) 166-8452                
John Cournoyer,jcournoyer@hotwired.com,(519) 164-6662                
Carroll Lelle,clelle@netnutz.biz,(519) 174-2422                
Mona R Devane,mdevane@arachnet.ca,(519) 123-8757                
Bill Geerken,bgeerken@wired.biz,(519) 135-8752                
Wai-Cheong Overmire,wovermire@nolimits.com,(519) 136-2457                
Andy Illing,ailling@webworks.com,(519) 146-4256                
Danny L Limoli,dlimoli@scratchworx.com,(519) 185-8782                
Michael M Fallaw,mfallaw@maplenet.ca,(519) 148-8478                
Everett Heilmann,eheilmann@fishnet.nl.ca,(519) 127-8745                
Anand Rajaraman,arajaraman@netsurfer.in,48848612                      
Michelle Maddox,mmaddox@cannet.ca,(519) 162-2548                
Kim K Simmons,ksimmons@webworks.com,(519) 185-7434                
Mary Westermeier,mwestermeier@maplenet.ca,(519) 127-5888                
Lucia Ohr,lohr@arachnet.ca,(519) 176-5572                
Ren-Liang Hu,rhu@netsurfer.cn,71735544                      
Pierre Bunte,pbunte@whatnet.on.ca,(519) 132-6643                
Ed Amburgey,eamburgey@kidsafe.net,(519) 144-2777                
Melissa J Nowakowski,mnowakowski@funnet.ca,(519) 146-8628                
Lyndol Yurovic,lyurovic@kidsafe.net,(519) 122-2682                
Kathy Ostendorff,kostendorff@hotwired.com,(519) 157-3454                
Xing Fu,xfu@netsurfer.cn,77874143                      
Patrick J Downes,pdownes@maplenet.ca,(519) 154-6344                
Michael Gibson,mgibson@webworks.com,(519) 148-6683                
Patty Hart,phart@cheapnfast.com,(519) 187-4688                
April Deponte,adeponte@funnet.ca,(519) 137-4458                
Sayan Kar,skar@netsurfer.in,35667216                      
Marina Emfinger,memfinger@goalnet.qc.ca,(519) 173-5552                
Andi Johnson,ajohnson@goalnet.qc.ca,(519) 143-5662                
Terese Clendenin,tclendenin@celestial.bc.ca,(519) 128-7266                
Jenny L Morquecho,jmorquecho@kidsafe.net,(519) 167-7262                
John Allen,jallen@cannet.ca,(519) 128-6264                
Edwinna Gournis,egournis@kidsafe.net,(519) 122-4257                
Joanna Stevens,jstevens@surfsup.com,(519) 176-7473                
Gene Borgerding,gborgerding@kidsafe.net,(519) 127-8555                
Tong Cao,tcao@netsurfer.cn,78352817                      
John McKenzie,jmckenzie@funnet.ca,(519) 148-8346                
Joann P Hagge,jhagge@netnorth.ca,(519) 174-3752                
Jean Marie Lebrun,jlebrun@surfsup.com,(519) 178-4568                
Wilda T Velasquez,wvelasquez@hotwired.com,(519) 178-5544                
Michelle R Faidley,mfaidley@netnorth.ca,(519) 137-8763                
Elwyn Ii Chick,echick@whatnet.on.ca,(519) 143-4726                
Daniel Pieczynski,dpieczynski@goalnet.qc.ca,(519) 173-5382                
Lorriane Siddiq,lsiddiq@hotwired.com,(519) 145-8662                
Victoria Hinch,vhinch@nolimits.com,(519) 168-4237                
Mike Konon,mkonon@scratchworx.com,(519) 128-3645                
Cora Stec,cstec@arachnet.ca,(519) 168-2723                
Janic (Jan) Lirag,jlirag@fishnet.nl.ca,(519) 146-4657                
Sandra Bickers,sbickers@kidsafe.net,(519) 185-2637                
Pico Clukies,pclukies@netnutz.biz,(519) 173-2337                
Margaret Watzke,mwatzke@celestial.bc.ca,(519) 166-8342                
Cheri Reed,creed@netnutz.biz,(519) 122-7532                
Christopher W. Schmitt,cschmitt@webworks.com,(519) 168-2543                
Augustin Tinsley,atinsley@spider.com,(519) 145-6388                
Michael Bawek,mbawek@funnet.ca,(519) 133-4546                
Peter Edgington,pedgington@webworks.com,(519) 137-3585                
Margaret G Emoto,memoto@funnet.ca,(519) 125-2486                
Dorothea Brengelman,dbrengelman@fishnet.nl.ca,(519) 152-4565                
Durial Prieto,dprieto@hotwired.com,(519) 138-4635                
Ben Faria,jfaria@funnet.ca,(519) 172-3675                
Mu Zang,mzang@netsurfer.cn,47656686                      
Veuve Frs. Bouknight,vbouknight@goalnet.qc.ca,(519) 164-8265                
Jeron D Worsley,jworsley@wired.biz,(519) 128-8483                
Michael Juell,mjuell@webworks.com,(519) 172-4524                
Caroline Porcarelli,cporcarelli@scratchworx.com,(519) 122-3232                
Lawrence Venger,lvenger@cannet.ca,(519) 182-8458                
Teresa C. Salmon,tsalmon@whatnet.on.ca,(519) 135-8555                
Peter Sedano,psedano@goalnet.qc.ca,(519) 188-7454                
Isaac Mondello,imondello@nolimits.com,(519) 166-3665                
Paulette Sims,psims@netnutz.biz,(519) 157-4828                
John C Havner,jhavner@surfsup.com,(519) 144-6645                
Boyd Treasure,btreasure@surfsup.com,(519) 134-3448                
Rhonda J Trainor,rtrainor@nolimits.com,(519) 147-5626                
Lori A Disney,ldisney@kidsafe.net,(519) 155-8378                
Glenn Bianchi,gbianchi@spider.com,(519) 147-7568                
Bobby R Warmington,bwarmington@whatnet.on.ca,(519) 187-6233                
Kathy Swindell,kswindell@wired.biz,(519) 123-2885                
Quong Vandeman,qvandeman@funnet.ca,(519) 188-8247                
Mathew Allhands,mallhands@kidsafe.net,(519) 146-6332                
Maryann Beekman,mbeekman@maplenet.ca,(519) 176-7538                
William Brewington,wbrewington@gamergold.com,(519) 136-2587                
Kate Ford,kford@gamergold.com,(519) 152-5385                
Mark Murthy,mmurthy@goalnet.qc.ca,(519) 187-6233                
Anant Kumar,akumar@netsurfer.in,57181474                      
Martin Crocker,mcrocker@arachnet.ca,(519) 156-8734                
Billie J Kemble,bkemble@maplenet.ca,(519) 145-4688                
Sharon D. Burris,sburris@nolimits.com,(519) 132-2846                
Teressa Grider,tgrider@surfsup.com,(519) 186-6728                
Ben-du Zhong,bzhong@,54155245                      
Remona Kelly,rkelly@scratchworx.com,(519) 188-4387                
Samuel J Shifflett,sshifflett@wired.biz,(519) 157-5275                
Pierre Gabrel,pgabrel@arachnet.ca,(519) 174-4468                
Jerome Parmelee,jparmelee@cannet.ca,(519) 156-2548                
Dorgelis A. Dunkle,ddunkle@arachnet.ca,(519) 135-3754                
Dale Karsh,dkarsh@cheapnfast.com,(519) 183-3646                
Marjorie Mcmonagle,mmcmonagle@celestial.bc.ca,(519) 186-6886                
Rakesh Wekenmann,rwekenmann@fishnet.nl.ca,(519) 185-2783                
Marcia L Dionne,mdionne@gamergold.com,(519) 132-2543                
Mellie Trenchard,mtrenchard@cheapnfast.com,(519) 128-7334                
Lois Holan,lholan@funnet.ca,(519) 144-8853                
Kristin Schaeffler,kschaeffler@netnorth.ca,(519) 128-7586                
Abdolsamad Kathiresan,akathiresan@scratchworx.com,(519) 122-2682                
Fatimah Daghita,fdaghita@cannet.ca,(519) 176-6644                
Ava Bigony,abigony@netnutz.biz,(519) 174-3627                
Shibaji Raha,sraha@netsurfer.in,55778577                      
Pan-Juan Lin,plin@netsurfer.cn,27161282                      
Melissa R. Jolliff,mjolliff@netsurfer.ca,(519) 153-5388                
Gregory Justus,gjustus@celestial.bc.ca,(519) 182-4468                
Jan Durelli,jdurelli@webworks.com,(519) 185-2587                
Leslie C Shamonsky,lshamonsky@maplenet.ca,(519) 146-5558                
Dona Mittelsteadt,dmittelsteadt@cannet.ca,(519) 132-4272                
Michelle Stoll,mstoll@netnutz.biz,(519) 186-7674                
Carla Jirasek,cjirasek@webworks.com,(519) 187-4744                
John Gehringer,jgehringer@celestial.bc.ca,(519) 128-7422                
Lisa Adler,ladler@netnorth.ca,(519) 157-3678                
David Kilness,dkilness@surfsup.com,(519) 158-8423                
Jennifer Andrews,jandrews@funnet.ca,(519) 168-4767                
Melinda Kalinowski,mkalinowski@fishnet.nl.ca,(519) 134-8586                
Don Lyons,dlyons@scratchworx.com,(519) 175-6848                
Ingrid Whitter,iwhitter@arachnet.ca,(519) 136-3767                
Kimberly R Cairns,kcairns@nolimits.com,(519) 157-3653                
Judith Surminec,jsurminec@whatnet.on.ca,(519) 143-6382                
Tamica Jacobs,tjacobs@webworks.com,(519) 125-8437                
Perry R London,plondon@webworks.com,(519) 138-2246                
Linda G Jeter,ljeter@wired.biz,(519) 187-4842                
Bhanu Das,bdas@netsurfer.in,27326227                      
Dede Derk,dderk@cheapnfast.com,(519) 176-8564                
Thomas Chrystal,tchrystal@hotwired.com,(519) 153-8364                
Roberto Pryor,rpryor@netnutz.biz,(519) 143-8454                
Patricia Schucker,pschucker@gamergold.com,(519) 173-7225                
Michelle Shiro,mshiro@webworks.com,(519) 144-4767                
Patty L Zelinski,pzelinski@fishnet.nl.ca,(519) 124-8226                
Zhi-Hua Li,zli@netsurfer.cn,77734745                      
Tadeusz Tomaszewski,ttomaszewski@,+48 22 207 19 00              
Jeff Naftel,jnaftel@celestial.bc.ca,(519) 177-8258                
Gloria Anderson,ganderson@netnutz.biz,(519) 132-5866                
Larry Connell,lconnell@scratchworx.com,(519) 124-5585                
Lucy Fair,lfair@cannet.ca,(519) 157-5368                
Neil Badame,nbadame@cannet.ca,(519) 148-4576                
Angel Zablan,azablan@arachnet.ca,(519) 128-5854                
Charles Daill,cdaill@goalnet.qc.ca,(519) 165-5282                
Leslie Slenker,lslenker@arachnet.ca,(519) 185-7658                
Kenny Miyagawa,kmiyagawa@cannet.ca,(519) 148-2345                
Salim Adolf,sadolf@celestial.bc.ca,(519) 165-2854                
Laura A Elkins,lelkins@goalnet.qc.ca,(519) 175-4744                
Valerie Lagerberg,vlagerberg@netsurfer.ca,(403) 126-6375                
Hilary Mintsoulis,hmintsoulis@fishnet.nl.ca,(519) 155-4662                
Dolores Webster,dwebster@hotwired.com,(519) 172-2332                
Geraldine D. Pillai,gpillai@netnorth.ca,(519) 186-4533                
Jennifer Tan,jtan@goalnet.qc.ca,(519) 185-2848                
Pierre Veve,pveve@maplenet.ca,(519) 177-7282                
Judy Buskohl,jbuskohl@goalnet.qc.ca,(519) 137-5487                
Frs. Odien,fodien@hotwired.com,(519) 186-7346                
Melissa Ann Brashier,mbrashier@cannet.ca,(519) 175-2687                
Tara Prvitt,tprvitt@wired.biz,(519) 122-8672                
Larry Kapper,lkapper@hotwired.com,(519) 133-2564                
Bruce Balsis,bbalsis@nolimits.com,(519) 147-2247                
Troy Stefanich,tstefanich@spider.com,(519) 158-5275                
Rex Taulbee,rtaulbee@whatnet.on.ca,(519) 172-6628                
Sandi Livers,slivers@cannet.ca,(519) 172-3443                
Rodger J Barber,rbarber@scratchworx.com,(519) 164-7734                
Pierre Banana,pbanana@kidsafe.net,(519) 158-3265                
Sandra Lainhart,slainhart@arachnet.ca,(519) 173-6444                
Lurlene Doniger,ldoniger@whatnet.on.ca,(519) 153-5877                
Barry E Shur,bshur@nolimits.com,(519) 177-3886                
Nancy Spratt,nspratt@netnutz.biz,(519) 124-8753                
Marcy Klemetson,mklemetson@maplenet.ca,(519) 126-2375                
Robert J. Tatarka,rtatarka@fishnet.nl.ca,(519) 137-2624                
Elizabeth Zipperer,ezipperer@webworks.com,(519) 138-7367                
Habib Chaudhury,hchaudhury@netsurfer.in,65481522                      
Laura Dominga,ldominga@maplenet.ca,(519) 186-7563                
Nityananda Dhyanapeetam,ndhyanapeetam@netsurfer.in,75824223                      
Eve Cortner,ecortner@gamergold.com,(519) 144-2456                
Yolanda Floyd,yfloyd@,(650) 253-0000                
Toney Almeida,talmeida@maplenet.ca,(519) 148-3647                
Kristin Evans,kevans@webworks.com,(519) 172-7434                
Debbie Tibolla,dtibolla@goalnet.qc.ca,(519) 136-8875                
Mark A Braboy,mbraboy@netsurfer.ca,(519) 156-8274                
Debbie E Abshire,dabshire@webworks.com,(519) 132-6264                
Doris Teran,dteran@scratchworx.com,(519) 148-5487                
James G. Lowe,jlowe@hotwired.com,(519) 122-2446                
Angie Harlan,aharlan@scratchworx.com,(519) 182-8268                
Audrey Wittrup,awittrup@hotwired.com,(519) 157-6732                
Sylvia Neiss,sneiss@fishnet.nl.ca,(519) 184-8642                
Joseph Tabag,jtabag@netnutz.biz,(519) 143-8478                
Joseph Chauvin,jchauvin@arachnet.ca,(519) 168-7737                
Mary Jean Palafox,mpalafox@funnet.ca,(519) 162-8258                
Tammy Fitzgerald,tfitzgerald@gamergold.com,(519) 158-3532                
Novlette Sifers,nsifers@funnet.ca,(519) 136-4548                
Lee Lucas,llucas@nolimits.com,(519) 166-6646                
Soumitro Sengupta,ssengupta@netsurfer.in,63561553                      
Vivek Lakshmanan,vlakshmanan@netsurfer.in,33842124                      
Reginald Riolo,rriolo@fishnet.nl.ca,(519) 173-3867                
Cheryl Hughes,chughes@scratchworx.com,(519) 153-3564                
Ramesh Babu,rbabu@netsurfer.in,62238387                      
Donna Brefka,dbrefka@funnet.ca,(519) 166-6346                
Ken Trang,ktrang@cannet.ca,(519) 185-7653                
Darren Kim,dkim@celestial.bc.ca,(519) 184-5282                
Tiffany Cumberland,tcumberland@netnorth.ca,(519) 136-5737                
Florencia Dumais,fdumais@celestial.bc.ca,(519) 162-5566                
Catherine Morris,cmorris@hotwired.com,(519) 123-4254                
Li Zhang,lzhang@netsurfer.cn,77387836                      
Frank Kaestner,fkaestner@wired.biz,(519) 127-6767                
Josefine Crudup,jcrudup@cheapnfast.com,(519) 188-6664                
Mireille Killmeyer,mkillmeyer@surfsup.com,(519) 166-7757                
Sharon T Verch,sverch@webworks.com,(519) 152-8784                
Karina Galea,kgalea@hotwired.com,(519) 146-4333                
Jessica Khan,jkhan@scratchworx.com,(519) 147-4327                
Mary Talarico,mtalarico@netsurfer.ca,(519) 175-8832                
Tina M Maday,tmaday@kidsafe.net,(519) 174-3587                
Bark Uerkwitz,buerkwitz@fishnet.nl.ca,(519) 175-8333                
Barbara Fousek,bfousek@wired.biz,(519) 178-3876                
Shu-Ying Zeng,szeng@netsurfer.cn,32114653                      
Steven Littleton,slittleton@cheapnfast.com,(519) 164-3744                
Mary paula Hossfeld,mhossfeld@celestial.bc.ca,(519) 172-6273                
Sondra Rylands,srylands@funnet.ca,(519) 176-6775                
Dixie L. Rothman,drothman@nolimits.com,(519) 153-5783                
Allen Aitkins,aaitkins@netnorth.ca,(519) 178-4456                
Tami Harte,tharte@celestial.bc.ca,(519) 167-8452                
Devon Pippert,dpippert@webworks.com,(519) 184-5674                
John Gibson,jgibson@hotwired.com,(519) 124-4227                
Cherie L Chenault,cchenault@fishnet.nl.ca,(519) 138-2784                
Lizeth Gracia,lgracia@gamergold.com,(519) 177-7326                
Tanya Maleck,tmaleck@arachnet.ca,(519) 126-8874                
Venkataraman Thangadurai,vthangadurai@netsurfer.in,75572167                      
Janey Morris,jmorris@cannet.ca,(519) 163-3246                
Rosalie Donaldson,rdonaldson@maplenet.ca,(519) 124-3227                
Robbie Campagnini,rcampagnini@wired.biz,(519) 124-3272                
Sima Trudillo,strudillo@spider.com,(519) 147-4725                
Hayley C Peyton,hpeyton@hotwired.com,(519) 142-5824                
Sheryl Meador,smeador@hotwired.com,(519) 168-4882                
Marvin Imeson,mimeson@celestial.bc.ca,(519) 184-3324                
Santos Dieken,sdieken@cannet.ca,(519) 177-4374                
Praveer Asthana,pasthana@netsurfer.in,35586477                      
Kathy Bland,kbland@nolimits.com,(519) 126-5734                
Mark D. Ogata,mogata@nolimits.com,(519) 124-2756                
Zhong-Ling Liu,zliu@netsurfer.cn,55232365                      
Steven D Zeminski,szeminski@webworks.com,(519) 174-7537                
Gerard Ciavardini,gciavardini@maplenet.ca,(519) 178-7547                
Ignace Deily,ideily@cannet.ca,(519) 173-5778                
Sasha Schembri,sschembri@nolimits.com,(519) 166-8342                
Joseph Chango,jchango@netsurfer.ca,(416) 183-3286                
Gail Dolak,gdolak@wired.biz,(519) 163-8345                
Shayna Partin,spartin@spider.com,(519) 142-7623                
Kathy Wiley,kwiley@gamergold.com,(519) 148-3543                
Abbas Rangwala,arangwala@netsurfer.in,28837266                      
Jane Denham,jdenham@scratchworx.com,(519) 152-4683                
Bill Vainio,bvainio@maplenet.ca,(519) 182-5556                
Peng-Cheng W,pw@netsurfer.cn,41423336                      
Annie Savela,asavela@gamergold.com,(519) 154-3472                
Benjamin Ruhnke,bruhnke@webworks.com,(519) 154-4636                
Gwendolyn Robida,grobida@kidsafe.net,(519) 158-2863                
Kenneth Long,klong@wired.biz,(519) 122-8232                
Gail Haroun,gharoun@gamergold.com,(519) 136-6537                
Rina Arunkumar,rarunkumar@fastnet.ca,(519) 177-7775                
Bob Payer,bpayer@scratchworx.com,(519) 132-7638                
Roman Veith,rveith@nolimits.com,(519) 135-6823                
Robert Floresca,rfloresca@fishnet.nl.ca,(519) 135-5828                
Tim L Ranoo,tranoo@nolimits.com,(519) 184-2558                
Vivien Einstoss,veinstoss@surfsup.com,(519) 124-8764                
Isa Meyers,imeyers@gamergold.com,(519) 134-4578                
Jackie Lynch,jlynch@fishnet.nl.ca,(519) 156-6276                
Chien Gao,cgao@netsurfer.cn,25374247                      
Oliva Baptista,obaptista@kidsafe.net,(519) 168-4363                
Dovie Crabtree,dcrabtree@cannet.ca,(519) 122-7687                
Tapan Meehan,tmeehan@whatnet.on.ca,(519) 123-3446                
Chs. F. Mines,cmines@spider.com,(519) 166-4627                
Gerald D Langone,glangone@surfsup.com,(519) 164-4256                
Henry Swain,hswain@funnet.ca,(519) 184-7326                
William F Wilson,wwilson@arachnet.ca,(519) 137-6582                
Yvonne Beames,ybeames@webworks.com,(519) 128-7855                
Dean Colosie,dcolosie@gamergold.com,(519) 127-8545                
Tony Puotinen,tpuotinen@netnorth.ca,(519) 176-4845                
Justin Waller,jwaller@surfsup.com,(519) 175-8688                
Janet L Mcelmurry,jmcelmurry@kidsafe.net,(519) 128-5374                
Mortimer Schell,mschell@cannet.ca,(519) 178-2344                
Jessica Leier,jleier@whatnet.on.ca,(519) 147-7842                
Michael B. Johnson,mjohnson@gamergold.com,(519) 126-2455                
Barbara Maltba,bmaltba@celestial.bc.ca,(519) 123-3732                
Isaac Siliador,isiliado@webworks.com,(519) 162-7775                
Zhi-Wen Ao,zao@netsurfer.cn,83382784                      
Barry R. Thompson,bthompson@cheapnfast.com,(519) 186-3363                
Michael Sleeman,msleeman@gamergold.com,(519) 127-3484                
Cornelia Childers,cchilders@arachnet.ca,(519) 173-7252                
Gary Bongiardina,gbongiardina@netnorth.ca,(519) 137-8385                
Jian-Xin Luo,jluo@netsurfer.cn,61255524                      
Brenda L Hebert-boyd,bhebert-boyd@scratchworx.com,(519) 185-5723                
Michael V Trent,mtrent@goalnet.qc.ca,(519) 177-8746                
Cecile Lyon,clyon@kidsafe.net,(519) 138-5388                
Carla Iserhienrhien,ciserhienrhien@hotwired.com,(519) 185-4628                
Gwenda Watchorn,gwatchorn@cheapnfast.com,(519) 147-7827                
Arthur G. Jaysura,ajaysura@cannet.ca,(519) 133-3352                
George Allen,gallen@cheapnfast.com,(519) 136-2467                
Monica Nardozzi,mnardozzi@netsurfer.ca,(519) 124-8536                
Tina Mittleman,tmittleman@goalnet.qc.ca,(519) 188-6755                
Sheila Beal,sbeal@whatnet.on.ca,(519) 167-6575                
Joseph Schmunk,jschmunk@whatnet.on.ca,(519) 143-7684                
Olga Estridge,oestridge@netnutz.biz,(519) 124-8586                
Veronica J Hayre,vhayre@spider.com,(519) 126-3873                
Vijay Mukhi,vmukhi@netsurfer.in,68647352                      
Josie Tarbell,jtarbell@surfsup.com,(519) 183-3554                
Indu Taneja,iteneja@bsnl.co.in,0141-6610242                  
Frank Orzalli,forzalli@celestial.bc.ca,(519) 164-7736                
Johnette Casales,jcasales@goalnet.qc.ca,(519) 122-4424                
Chris Vegetabile,cvegetabile@nolimits.com,(519) 145-4678                
Julianna Brown,jbrown@goalnet.qc.ca,(519) 134-6478                
Rosmond Waring,rwaring@funnet.ca,(519) 168-8245                
Stacie L Reed,sreed@nolimits.com,(519) 177-2264                
Bobbie Webb,bwebb@surfsup.com,(519) 144-4838                
Joe R Mitchell,jmitchell@netnutz.biz,(519) 183-4726                
Terry Mccant,tmccant@kidsafe.net,(519) 154-5772                
David Kohut,dkohut@wired.biz,(519) 184-3428                
Elio Canion,ecanion@hotwired.com,(519) 142-4428                
Govind Karjol,gkarjol@netsurfer.in,87331852                      
Peter Kueny,pkueny@gamergold.com,(519) 175-3467                
Joseph Parker,jparker@netnutz.biz,(519) 152-4858                
Kathy Huhn,khun@funnet.ca,(519) 122-2682                
Sonja Lechleidner,slechleidner@celestial.bc.ca,(519) 187-2336                
Nana Ama Villansenor,nvillansenor@hotwired.com,(519) 184-5735                
Reed Hottell,rhottell@hotwired.com,(519) 126-4752                
Sheila Garrahan,sgarrahan@scratchworx.com,(519) 136-5637                
Sheila R Rehse,srehse@surfsup.com,(519) 182-6854                
Stephanie E Huntzinger,shuntzinger@surfsup.com,(519) 138-4772                
Bruce Morgan,bmorgan@fishnet.nl.ca,(519) 122-5326                
Leszek Mattingly,lmattingly@kidsafe.net,(519) 135-4273                
Ramabai Pandita,rpandita@netsurfer.in,77763885                      
Barry Matthews,bmatthews@funnet.ca,(519) 126-2855                
Etienne Tolen,etolen@hotwired.com,(519) 162-8552                
Melissa Kinlock,mkinlock@celestial.bc.ca,(519) 172-3745                
Gary Brisk,gbrisk@netsurfer.ca,(519) 178-5466                
Jeanne S. Wolfe,jwolfe@cheapnfast.com,(519) 153-2357                
Sergio Ford,sford@kidsafe.net,(519) 168-4228                
Charudatta Fugate,cfugate@gamergold.com,(519) 136-3352                
Joseph Boersma,jboersma@cannet.ca,(519) 138-5343                
Keith Filbrardt,kfilbrardt@nolimits.com,(519) 136-7665                
Tonya V Rowland,trowland@wired.biz,(519) 188-7647                
Clifford Hamilton,chamilton@cheapnfast.com,(519) 185-3375                
Kelli McPhail Koenigsfeld,kkoenigsfeld@surfsup.com,(519) 137-8332                
Joia Mukherjee,jmukherjee@netsurfer.in,56731857                      
Carrick C. Fennig,cfennig@netnorth.ca,(519) 167-7772                
Xan-Xiang Zhang,xzhang@netsurfer.cn,62633373                      
Patsy Goben,pgoben@cannet.ca,(519) 147-6648                
Xiangsheng Duban,xduban@spider.com,(519) 157-5458                
Patricia Cornette,pcornette@hotwired.com,(519) 148-7552                
Gary McLaughlin,gmclaughlin@wired.biz,(519) 167-8423                
Cynthia Phillip-Trought,cphillip-trought@netnutz.biz,(519) 183-7376                
David S James,djames@goalnet.qc.ca,(519) 147-4362                
Frank Potes,fpotes@maplenet.ca,(519) 126-3624                
John Bartleson,jbartleson@celestial.bc.ca,(519) 188-3643                
Brandon Yam,byam@surfsup.com,(519) 122-7634                
Peggy A. Kester,pkester@netnutz.biz,(519) 142-5583                
Danny Cutts,dcutts@arachnet.ca,(519) 135-8452                
Rick Whetstone,rwhetstone@webworks.com,(519) 148-8482                
Ted Coulson,tcoulson@whatnet.on.ca,(519) 176-4847                
Willa K Taback,wtaback@hotwired.com,(519) 138-4488                
Kelley J Lynne,klynne@netnorth.ca,(519) 187-6672                
Francesca Freyer,ffreyer@goalnet.qc.ca,(519) 147-6872                
Carla L. Packebush,cpackebush@fishnet.nl.ca,(519) 137-5858                
Carmela Klarich,cklarich@wired.biz,(519) 145-4365                
Carol Phatdouang,cphatdouang@surfsup.com,(519) 176-5268                
Maria Ihrig,mihrig@netsurfer.ca,(905) 133-5473                
Horton Panchana,hpanchana@scratchworx.com,(519) 136-5466                
Heather Silvera,hsilvera@funnet.ca,(519) 158-4463                
Jayson Maschmeyer,jmaschmeyer@netnorth.ca,(519) 122-6675                
Edris High,ehigh@fishnet.nl.ca,(519) 123-7768                
Antoine Ceretti,aceretti@webworks.com,(519) 163-5333                
Anna Karasevicz,akarasevicz@gamergold.com,(519) 187-8665|               
Rebecca A Conrad,rconrad@gamergold.com,(519) 127-5474                
Lawrence Bubbico,lbubbico@cheapnfast.com,(519) 165-2236                
Nergis Adams,nadams@nolimits.com,(519) 165-4524                
Connie Hutchcroft,chutchcroft@cannet.ca,(519) 142-7682                
Amable Atoe,aatoe@maplenet.ca,(519) 156-3228                
Michael J Garland,mgarland@nolimits.com,(519) 155-3764                
Mary Ann Klingshirn,mklingshirn@wired.biz,(519) 172-5665                
Lindy Distefano,ldistefano@whatnet.on.ca,(519) 128-8327                
James Campion,jcampion@arachnet.ca,(519) 176-2782                
Melvin B. Corradini,mcorradini@webworks.com,(519) 183-6346                
Bryan Pentaris,bpentaris@spider.com,(519) 177-7456                
Lisa J Mu,lmu@wired.biz,(519) 138-3858                
Mei-Zhi Wang,mwang@netsurfer.cn,77418715                      
Alkasum Abba,aabba@,+234-75-883620                
Donald Ellington,dellington@gamergold.com,(519) 157-2656                
Jay Raimond,jraimond@celestial.bc.ca,(519) 154-5866                
Sheila D Theiler,stheiler@whatnet.on.ca,(519) 165-6355                
Charles Farag,cfarag@funnet.ca,(519) 127-7878                
Amy C Malesky,amalesky@funnet.ca,(519) 153-2754                
Linda Oswalt,loswalt@surfsup.com,(519) 147-8223                
Debora A Kakos,dkakos@surfsup.com,(519) 188-2686                
Mike Nave,mnave@fishnet.nl.ca,(519) 122-4268                
Felecia Delrossi,fdelrossi@wired.biz,(519) 166-4747                
Lisa Partido,lpartido@hotwired.com,(519) 132-8336                
Leola Lavoix,llavoix@spider.com,(519) 158-6668                
Doug Miller,dmiller@cheapnfast.com,(519) 145-6723                
Annette Aranas,aaranas@spider.com,(519) 158-2255                
Farley Staggs,fstaggs@fishnet.nl.ca,(519) 155-6833                
Kenneth D Lacey,klacey@nolimits.com,(519) 168-8255                
Bijan Bajchi,bbajchi@netsurfer.in,33745826                      
Karen Supino,ksupino@cannet.ca,(519) 123-5258                
Nicki Dionne,ndionne@netnutz.biz,(519) 125-2483                
Kathleen A Decent,kdecent@surfsup.com,(519) 168-5534                
Frans. Guzzo-Foliaro,fguzzo-foliaro@cannet.ca,(519) 144-4843                
Ivette Gulston,igulston@funnet.ca,(519) 155-6478